{
  "stage_with_two_groups": {
    "name": "Stage with two groups",
    "section": "section1",
    "groups": [
      "group1",
      "group2"
    ],
    "label": "devops::stage with two groups",
    "slack_channel": "stage_with_two_groups"
  },
  "stage_with_one_group": {
    "name": "Stage with one group",
    "section": "section2",
    "groups": [
      "group3"
    ],
    "label": "devops::stage_with_one_group",
    "slack_channel": "stage_with_one_group"
  },
  "engineering_productivity": {
    "name": "Engineering Productivity",
    "section": null,
    "groups": [
      "gdk",
      "engineering_productivity"
    ],
    "label": "Engineering Productivity",
    "slack_channel": "g_engineering_productivity"
  },
  "unlisted_stage": {
    "name": "Unlisted stage",
    "section": null,
    "groups": [
      "quality",
      "contributor_success",
      "ux_paper_cuts",
      "infrastructure",
      "technical_writing",
      "engineering_analytics"
    ],
    "label": "",
    "slack_channel": ""
  }
}
